EESchema Schematic File Version 4
EELAYER 30 0
EELAYER END
$Descr A4 11693 8268
encoding utf-8
Sheet 4 10
Title ""
Date ""
Rev ""
Comp ""
Comment1 ""
Comment2 ""
Comment3 ""
Comment4 ""
$EndDescr
$Comp
L TL1015AF160QG:TL1015AF160QG S1
U 1 1 60974072
P 5250 3000
F 0 "S1" H 5250 3367 50  0000 C CNN
F 1 "TL1015AF160QG" H 5250 3276 50  0000 C CNN
F 2 "others:TL1015AF160QG" H 5250 3000 50  0001 L BNN
F 3 "" H 5250 3000 50  0001 L BNN
F 4 "F" H 5250 3000 50  0001 L BNN "PARTREV"
F 5 "E-Switch" H 5250 3000 50  0001 L BNN "MANUFACTURER"
F 6 "2.1 mm" H 5250 3000 50  0001 L BNN "MAXIMUM_PACKAGE_HEIGHT"
F 7 "Manufacturer Recommendations" H 5250 3000 50  0001 L BNN "STANDARD"
	1    5250 3000
	1    0    0    -1  
$EndComp
$Comp
L TL1015AF160QG:TL1015AF160QG S2
U 1 1 609748F7
P 5250 3850
F 0 "S2" H 5250 4217 50  0000 C CNN
F 1 "TL1015AF160QG" H 5250 4126 50  0000 C CNN
F 2 "others:TL1015AF160QG" H 5250 3850 50  0001 L BNN
F 3 "" H 5250 3850 50  0001 L BNN
F 4 "F" H 5250 3850 50  0001 L BNN "PARTREV"
F 5 "E-Switch" H 5250 3850 50  0001 L BNN "MANUFACTURER"
F 6 "2.1 mm" H 5250 3850 50  0001 L BNN "MAXIMUM_PACKAGE_HEIGHT"
F 7 "Manufacturer Recommendations" H 5250 3850 50  0001 L BNN "STANDARD"
	1    5250 3850
	1    0    0    -1  
$EndComp
$Comp
L power:GND #PWR?
U 1 1 60975315
P 8150 3500
AR Path="/609302C0/60975315" Ref="#PWR?"  Part="1" 
AR Path="/609304A1/60975315" Ref="#PWR?"  Part="1" 
AR Path="/61170FA8/60975315" Ref="#PWR039"  Part="1" 
F 0 "#PWR039" H 8150 3250 50  0001 C CNN
F 1 "GND" H 8155 3327 50  0000 C CNN
F 2 "" H 8150 3500 50  0001 C CNN
F 3 "" H 8150 3500 50  0001 C CNN
	1    8150 3500
	1    0    0    -1  
$EndComp
$Comp
L Device:R_US R?
U 1 1 6097530F
P 7800 3100
AR Path="/609302C0/6097530F" Ref="R?"  Part="1" 
AR Path="/609304A1/6097530F" Ref="R?"  Part="1" 
AR Path="/61170FA8/6097530F" Ref="R13"  Part="1" 
F 0 "R13" V 7868 3146 50  0000 L CNN
F 1 "1K" V 7868 3055 50  0000 R CNN
F 2 "Resistor_SMD:R_0805_2012Metric" V 7840 3090 50  0001 C CNN
F 3 "~" H 7800 3100 50  0001 C CNN
	1    7800 3100
	0    -1   -1   0   
$EndComp
$Comp
L Device:LED D5
U 1 1 60975CBE
P 7350 3100
F 0 "D5" H 7343 2845 50  0000 C CNN
F 1 "LED" H 7343 2936 50  0000 C CNN
F 2 "LED_SMD:LED_0805_2012Metric" H 7350 3100 50  0001 C CNN
F 3 "~" H 7350 3100 50  0001 C CNN
	1    7350 3100
	-1   0    0    1   
$EndComp
$Comp
L power:GND #PWR?
U 1 1 609797F4
P 4800 4300
AR Path="/609302C0/609797F4" Ref="#PWR?"  Part="1" 
AR Path="/609304A1/609797F4" Ref="#PWR?"  Part="1" 
AR Path="/61170FA8/609797F4" Ref="#PWR040"  Part="1" 
F 0 "#PWR040" H 4800 4050 50  0001 C CNN
F 1 "GND" H 4805 4127 50  0000 C CNN
F 2 "" H 4800 4300 50  0001 C CNN
F 3 "" H 4800 4300 50  0001 C CNN
	1    4800 4300
	1    0    0    -1  
$EndComp
$Comp
L power:GND #PWR?
U 1 1 60979AB3
P 4850 3300
AR Path="/609302C0/60979AB3" Ref="#PWR?"  Part="1" 
AR Path="/609304A1/60979AB3" Ref="#PWR?"  Part="1" 
AR Path="/61170FA8/60979AB3" Ref="#PWR038"  Part="1" 
F 0 "#PWR038" H 4850 3050 50  0001 C CNN
F 1 "GND" H 4855 3127 50  0000 C CNN
F 2 "" H 4850 3300 50  0001 C CNN
F 3 "" H 4850 3300 50  0001 C CNN
	1    4850 3300
	1    0    0    -1  
$EndComp
Text HLabel 6850 3100 0    50   Input ~ 0
Led1
Text HLabel 5800 3000 2    50   Input ~ 0
IO0
Text HLabel 5800 3850 2    50   Input ~ 0
EN
Wire Wire Line
	4850 3000 4950 3000
Wire Wire Line
	5550 3000 5800 3000
Wire Wire Line
	5550 3850 5550 4200
Wire Wire Line
	5100 4200 4800 4200
Wire Wire Line
	4800 4200 4800 4300
Wire Wire Line
	4800 4200 4800 3850
Wire Wire Line
	4800 3850 4950 3850
Connection ~ 4800 4200
Wire Wire Line
	5550 3850 5800 3850
Wire Wire Line
	6850 3100 7200 3100
Wire Wire Line
	7500 3100 7650 3100
Wire Wire Line
	7950 3100 8150 3100
Wire Wire Line
	8150 3100 8150 3500
Wire Wire Line
	5550 4200 5400 4200
$Comp
L 805_cap:Cap C?
U 1 1 60978008
P 5200 4200
AR Path="/609302C0/60978008" Ref="C?"  Part="1" 
AR Path="/609304A1/60978008" Ref="C?"  Part="1" 
AR Path="/61170FA8/60978008" Ref="C16"  Part="1" 
F 0 "C16" H 5204 4303 50  0000 R BNN
F 1 "100nF" H 5295 4303 50  0000 L BNN
F 2 "Capacitor_SMD:C_0805_2012Metric" H 5200 4200 50  0001 L BNN
F 3 "" H 5200 4200 50  0001 L BNN
	1    5200 4200
	1    0    0    -1  
$EndComp
Wire Wire Line
	4850 3000 4850 3300
$EndSCHEMATC
