(kicad_sch (version 20211123) (generator eeschema)

  (uuid ef400389-7e37-4c93-8647-76318089d59f)

  (paper "A4")

  (lib_symbols
    (symbol "805_cap:Cap" (pin_names (offset 1.016) hide) (in_bom yes) (on_board yes)
      (property "Reference" "C" (id 0) (at 0 3.81 0)
        (effects (font (size 1.27 1.27)) (justify left bottom))
      )
      (property "Value" "Cap" (id 1) (at 0 -5.08 0)
        (effects (font (size 1.27 1.27)) (justify left bottom))
      )
      (property "Footprint" "CAPC2012X135N" (id 2) (at 0 0 0)
        (effects (font (size 1.27 1.27)) (justify left bottom) hide)
      )
      (property "Datasheet" "" (id 3) (at 0 0 0)
        (effects (font (size 1.27 1.27)) (justify left bottom) hide)
      )
      (property "ki_locked" "" (id 4) (at 0 0 0)
        (effects (font (size 1.27 1.27)))
      )
      (symbol "Cap_0_0"
        (rectangle (start 0 -1.905) (end 0.635 1.905)
          (stroke (width 0) (type default) (color 0 0 0 0))
          (fill (type outline))
        )
        (rectangle (start 1.905 -1.905) (end 2.54 1.905)
          (stroke (width 0) (type default) (color 0 0 0 0))
          (fill (type outline))
        )
        (pin passive line (at 5.08 0 180) (length 2.54)
          (name "~" (effects (font (size 1.016 1.016))))
          (number "1" (effects (font (size 1.016 1.016))))
        )
        (pin passive line (at -2.54 0 0) (length 2.54)
          (name "~" (effects (font (size 1.016 1.016))))
          (number "2" (effects (font (size 1.016 1.016))))
        )
      )
    )
    (symbol "MCP3221A5T-E_OT:MCP3221A5T-E_OT" (pin_names (offset 1.016)) (in_bom yes) (on_board yes)
      (property "Reference" "U" (id 0) (at -12.7 13.6906 0)
        (effects (font (size 1.27 1.27)) (justify left bottom))
      )
      (property "Value" "MCP3221A5T-E_OT_MCP3221A5T-E_OT" (id 1) (at -12.7 -16.6878 0)
        (effects (font (size 1.27 1.27)) (justify left bottom))
      )
      (property "Footprint" "SOT95P270X145-5N" (id 2) (at 0 0 0)
        (effects (font (size 1.27 1.27)) (justify left bottom) hide)
      )
      (property "Datasheet" "" (id 3) (at 0 0 0)
        (effects (font (size 1.27 1.27)) (justify left bottom) hide)
      )
      (property "ki_locked" "" (id 4) (at 0 0 0)
        (effects (font (size 1.27 1.27)))
      )
      (symbol "MCP3221A5T-E_OT_0_0"
        (rectangle (start -12.7 -12.7) (end 12.7 12.7)
          (stroke (width 0.4064) (type default) (color 0 0 0 0))
          (fill (type background))
        )
        (pin power_in line (at 17.78 10.16 180) (length 5.08)
          (name "VDD" (effects (font (size 1.016 1.016))))
          (number "1" (effects (font (size 1.016 1.016))))
        )
        (pin power_in line (at 17.78 -7.62 180) (length 5.08)
          (name "VSS" (effects (font (size 1.016 1.016))))
          (number "2" (effects (font (size 1.016 1.016))))
        )
        (pin input line (at -17.78 5.08 0) (length 5.08)
          (name "AIN" (effects (font (size 1.016 1.016))))
          (number "3" (effects (font (size 1.016 1.016))))
        )
        (pin bidirectional line (at -17.78 -2.54 0) (length 5.08)
          (name "SDA" (effects (font (size 1.016 1.016))))
          (number "4" (effects (font (size 1.016 1.016))))
        )
        (pin input line (at -17.78 2.54 0) (length 5.08)
          (name "SCL" (effects (font (size 1.016 1.016))))
          (number "5" (effects (font (size 1.016 1.016))))
        )
      )
    )
    (symbol "power:+3.3V" (power) (pin_names (offset 0)) (in_bom yes) (on_board yes)
      (property "Reference" "#PWR" (id 0) (at 0 -3.81 0)
        (effects (font (size 1.27 1.27)) hide)
      )
      (property "Value" "+3.3V" (id 1) (at 0 3.556 0)
        (effects (font (size 1.27 1.27)))
      )
      (property "Footprint" "" (id 2) (at 0 0 0)
        (effects (font (size 1.27 1.27)) hide)
      )
      (property "Datasheet" "" (id 3) (at 0 0 0)
        (effects (font (size 1.27 1.27)) hide)
      )
      (property "ki_keywords" "power-flag" (id 4) (at 0 0 0)
        (effects (font (size 1.27 1.27)) hide)
      )
      (property "ki_description" "Power symbol creates a global label with name \"+3.3V\"" (id 5) (at 0 0 0)
        (effects (font (size 1.27 1.27)) hide)
      )
      (symbol "+3.3V_0_1"
        (polyline
          (pts
            (xy -0.762 1.27)
            (xy 0 2.54)
          )
          (stroke (width 0) (type default) (color 0 0 0 0))
          (fill (type none))
        )
        (polyline
          (pts
            (xy 0 0)
            (xy 0 2.54)
          )
          (stroke (width 0) (type default) (color 0 0 0 0))
          (fill (type none))
        )
        (polyline
          (pts
            (xy 0 2.54)
            (xy 0.762 1.27)
          )
          (stroke (width 0) (type default) (color 0 0 0 0))
          (fill (type none))
        )
      )
      (symbol "+3.3V_1_1"
        (pin power_in line (at 0 0 90) (length 0) hide
          (name "+3V3" (effects (font (size 1.27 1.27))))
          (number "1" (effects (font (size 1.27 1.27))))
        )
      )
    )
    (symbol "power:GND" (power) (pin_names (offset 0)) (in_bom yes) (on_board yes)
      (property "Reference" "#PWR" (id 0) (at 0 -6.35 0)
        (effects (font (size 1.27 1.27)) hide)
      )
      (property "Value" "GND" (id 1) (at 0 -3.81 0)
        (effects (font (size 1.27 1.27)))
      )
      (property "Footprint" "" (id 2) (at 0 0 0)
        (effects (font (size 1.27 1.27)) hide)
      )
      (property "Datasheet" "" (id 3) (at 0 0 0)
        (effects (font (size 1.27 1.27)) hide)
      )
      (property "ki_keywords" "power-flag" (id 4) (at 0 0 0)
        (effects (font (size 1.27 1.27)) hide)
      )
      (property "ki_description" "Power symbol creates a global label with name \"GND\" , ground" (id 5) (at 0 0 0)
        (effects (font (size 1.27 1.27)) hide)
      )
      (symbol "GND_0_1"
        (polyline
          (pts
            (xy 0 0)
            (xy 0 -1.27)
            (xy 1.27 -1.27)
            (xy 0 -2.54)
            (xy -1.27 -1.27)
            (xy 0 -1.27)
          )
          (stroke (width 0) (type default) (color 0 0 0 0))
          (fill (type none))
        )
      )
      (symbol "GND_1_1"
        (pin power_in line (at 0 0 270) (length 0) hide
          (name "GND" (effects (font (size 1.27 1.27))))
          (number "1" (effects (font (size 1.27 1.27))))
        )
      )
    )
  )

  (junction (at 162.56 107.95) (diameter 0) (color 0 0 0 0)
    (uuid 312474c5-a081-4cd1-b2e6-730f0718514a)
  )
  (junction (at 162.56 90.17) (diameter 0) (color 0 0 0 0)
    (uuid 72f9157b-77da-4a6d-9880-0711b21f6e23)
  )

  (wire (pts (xy 162.56 88.9) (xy 162.56 90.17))
    (stroke (width 0) (type default) (color 0 0 0 0))
    (uuid 1d1a7683-c090-4798-9b40-7ed0d9f3ce3b)
  )
  (wire (pts (xy 124.46 95.25) (xy 125.73 95.25))
    (stroke (width 0) (type default) (color 0 0 0 0))
    (uuid 54d76293-1ce2-46f8-9be7-a3d7f9f28112)
  )
  (wire (pts (xy 161.29 107.95) (xy 162.56 107.95))
    (stroke (width 0) (type default) (color 0 0 0 0))
    (uuid 7247fe96-7885-4063-8282-ea2fd2b28b0d)
  )
  (wire (pts (xy 124.46 97.79) (xy 125.73 97.79))
    (stroke (width 0) (type default) (color 0 0 0 0))
    (uuid 830aee7f-dfce-42cd-85ef-6370f6dc02f5)
  )
  (wire (pts (xy 162.56 90.17) (xy 161.29 90.17))
    (stroke (width 0) (type default) (color 0 0 0 0))
    (uuid b5ffe018-0d06-4a1b-95ee-b5763a35798d)
  )
  (wire (pts (xy 162.56 93.98) (xy 162.56 90.17))
    (stroke (width 0) (type default) (color 0 0 0 0))
    (uuid b7dfd91c-6180-48d0-832a-f6a5a032a686)
  )
  (wire (pts (xy 162.56 101.6) (xy 162.56 107.95))
    (stroke (width 0) (type default) (color 0 0 0 0))
    (uuid ce55d4e5-cb2b-4927-9979-4a7fc840f632)
  )
  (wire (pts (xy 124.46 102.87) (xy 125.73 102.87))
    (stroke (width 0) (type default) (color 0 0 0 0))
    (uuid ee9a2826-2513-480e-a552-3d07af5bf8a5)
  )
  (wire (pts (xy 162.56 107.95) (xy 162.56 109.22))
    (stroke (width 0) (type default) (color 0 0 0 0))
    (uuid f321809c-ab7a-4356-9b11-4c0d46c421ba)
  )

  (hierarchical_label "SDA" (shape input) (at 124.46 102.87 180)
    (effects (font (size 1.27 1.27)) (justify right))
    (uuid 28d267fd-6d61-43bb-9705-8d59d7a44e81)
  )
  (hierarchical_label "ADC" (shape input) (at 124.46 95.25 180)
    (effects (font (size 1.27 1.27)) (justify right))
    (uuid 3d70e675-48ae-4edd-b95d-3ca51e634018)
  )
  (hierarchical_label "SCL" (shape input) (at 124.46 97.79 180)
    (effects (font (size 1.27 1.27)) (justify right))
    (uuid 583b0bf3-0699-44db-b975-a241ad040fa4)
  )

  (symbol (lib_id "MCP3221A5T-E_OT:MCP3221A5T-E_OT") (at 143.51 100.33 0)
    (in_bom yes) (on_board yes)
    (uuid 00000000-0000-0000-0000-000061572e2d)
    (property "Reference" "U10" (id 0) (at 143.51 83.312 0))
    (property "Value" "MCP3221A5T-E_OT" (id 1) (at 143.51 85.6234 0))
    (property "Footprint" "Package_TO_SOT_SMD:SOT-23-5" (id 2) (at 143.51 100.33 0)
      (effects (font (size 1.27 1.27)) (justify left bottom) hide)
    )
    (property "Datasheet" "" (id 3) (at 143.51 100.33 0)
      (effects (font (size 1.27 1.27)) (justify left bottom) hide)
    )
    (pin "1" (uuid edfb90ce-23fe-4dab-b3de-5d627590e04b))
    (pin "2" (uuid 2831cf47-6c42-484f-8070-fad2a42bfce1))
    (pin "3" (uuid 556c49a3-3861-4eeb-bed7-30a5aebf5526))
    (pin "4" (uuid 443167d1-7c9e-4c4b-abc9-f3338629d2f5))
    (pin "5" (uuid ed953e91-9a60-4dae-b49b-63d249138507))
  )

  (symbol (lib_id "power:GND") (at 162.56 109.22 0) (unit 1)
    (in_bom yes) (on_board yes)
    (uuid 00000000-0000-0000-0000-000061572ee0)
    (property "Reference" "#PWR0110" (id 0) (at 162.56 115.57 0)
      (effects (font (size 1.27 1.27)) hide)
    )
    (property "Value" "GND" (id 1) (at 162.687 113.6142 0))
    (property "Footprint" "" (id 2) (at 162.56 109.22 0)
      (effects (font (size 1.27 1.27)) hide)
    )
    (property "Datasheet" "" (id 3) (at 162.56 109.22 0)
      (effects (font (size 1.27 1.27)) hide)
    )
    (pin "1" (uuid 173a4fe0-74d8-41ba-aacd-82f87a967a34))
  )

  (symbol (lib_id "power:+3.3V") (at 162.56 88.9 0) (unit 1)
    (in_bom yes) (on_board yes)
    (uuid 00000000-0000-0000-0000-000061573029)
    (property "Reference" "#PWR0111" (id 0) (at 162.56 92.71 0)
      (effects (font (size 1.27 1.27)) hide)
    )
    (property "Value" "+3.3V" (id 1) (at 162.941 84.5058 0))
    (property "Footprint" "" (id 2) (at 162.56 88.9 0)
      (effects (font (size 1.27 1.27)) hide)
    )
    (property "Datasheet" "" (id 3) (at 162.56 88.9 0)
      (effects (font (size 1.27 1.27)) hide)
    )
    (pin "1" (uuid dca8c8d1-a3bb-4c0c-8593-6b1490a0e357))
  )

  (symbol (lib_id "805_cap:Cap") (at 162.56 96.52 270)
    (in_bom yes) (on_board yes)
    (uuid 00000000-0000-0000-0000-00006158c032)
    (property "Reference" "C15" (id 0) (at 165.1762 96.6216 90)
      (effects (font (size 1.27 1.27)) (justify left))
    )
    (property "Value" "100nF" (id 1) (at 165.1762 98.933 90)
      (effects (font (size 1.27 1.27)) (justify left))
    )
    (property "Footprint" "Capacitor_SMD:C_0805_2012Metric" (id 2) (at 162.56 96.52 0)
      (effects (font (size 1.27 1.27)) (justify left bottom) hide)
    )
    (property "Datasheet" "" (id 3) (at 162.56 96.52 0)
      (effects (font (size 1.27 1.27)) (justify left bottom) hide)
    )
    (pin "1" (uuid 3ab3aa2c-3119-4e85-a150-3d06aca4fa40))
    (pin "2" (uuid 23374e42-f23d-4d36-829c-4bfbfa7eefe6))
  )
)
