Id;Designator;Package;Quantity;Designation;Supplier and ref
1;D1;SS24;1;DIOM5336X265N;
2;U2;TPS63070RNMT;1;TPS63070RNMT;
6;Q4,Q3;SOT-23-3;2;SOT23;
8;J5;SMA-J-P-H-ST-EM1;1;SAMTEC_SMA-J-P-H-ST-EM1;
9;U5;ESP32-WROVER-B__16MB_;1;ESP32-WROVER-B_(16MB);
10;U4;BMP280;1;BMP280;
11;U1;CP2102N-A01-GQFN28;1;QFN50P500X500X80-29N;
12;L1;XFL4020-102MEC;1;IND_XFL4020-102MEC;
13;U8;E22-900M22S;1;E22-900M22S;
14;J4;FFC2B28-24-G;1;GCT_FFC2B28-24-G;
15;Boot,EN;PTS820_J15;2;147873-1;
16;C21;C_0805_2012Metric;1;100nf;
17;R7;R_0805_2012Metric;1;47.5K;
18;R8;R_0805_2012Metric;1;22.1K;
19;R3;R_0805_2012Metric;1;2K;
20;Q1,Q2;SS8050-G;2;SOT95P240X115-3N;
21;R6,R5,R17,R16,R12,R14,R13,R15,R9,R4;R_0805_2012Metric;10;10K;
22;D3,D4,D5;D_SOD-323;3;esd;
23;U9;PCF8574RGTR;1;QFN50P300X300X100-17N;
24;J3;USB_Micro_B_Female_10118194-0001LF;1;10118194-0001LF;
25;L3;L_0805_2012Metric;1;27nH;
27;U3;ublox_MAX;1;MAX-M8Q;
28;U7,U6;MCP1700T-2802E_TT;2;SOT95P237X112-3N;
29;R2;R_0805_2012Metric;1;100K;
30;R10;R_0805_2012Metric;1;470K;
31;AE1;ANT_GPS_RAINSUN1003;1;Antenna;
32;R11;R_0805_2012Metric;1;150K;
33;R1;R_0805_2012Metric;1;560K;
34;C1,C3,C16,C17;C_0805_2012Metric;4;10uF;
35;C2,C5,C6,C7;C_0805_2012Metric;4;22uF;
36;C4,C8,C9,C11,C13,C14,C15,C19,C20;C_0805_2012Metric;9;0.1uF;
37;C10;C_0805_2012Metric;1;47pF;
38;C12;C_0805_2012Metric;1;15pF;
39;C18;C_0805_2012Metric;1;1uF;
41;D2;LED_0805_2012Metric;1;LED;
