EESchema Schematic File Version 4
EELAYER 30 0
EELAYER END
$Descr A4 11693 8268
encoding utf-8
Sheet 10 11
Title ""
Date ""
Rev ""
Comp ""
Comment1 ""
Comment2 ""
Comment3 ""
Comment4 ""
$EndDescr
$Comp
L MCP3221A5T-E_OT:MCP3221A5T-E_OT U?
U 1 1 61572E2D
P 5650 3950
AR Path="/61572E2D" Ref="U?"  Part="1" 
AR Path="/61570E22/61572E2D" Ref="U10"  Part="1" 
F 0 "U10" H 5650 4620 50  0000 C CNN
F 1 "MCP3221A5T-E_OT" H 5650 4529 50  0000 C CNN
F 2 "Package_TO_SOT_SMD:SOT-23-5" H 5650 3950 50  0001 L BNN
F 3 "" H 5650 3950 50  0001 L BNN
	1    5650 3950
	1    0    0    -1  
$EndComp
Text HLabel 4900 3850 0    50   Input ~ 0
SCL
Text HLabel 4900 4050 0    50   Input ~ 0
SDA
$Comp
L power:GND #PWR0110
U 1 1 61572EE0
P 6400 4300
F 0 "#PWR0110" H 6400 4050 50  0001 C CNN
F 1 "GND" H 6405 4127 50  0000 C CNN
F 2 "" H 6400 4300 50  0001 C CNN
F 3 "" H 6400 4300 50  0001 C CNN
	1    6400 4300
	1    0    0    -1  
$EndComp
$Comp
L power:+3.3V #PWR0111
U 1 1 61573029
P 6400 3500
F 0 "#PWR0111" H 6400 3350 50  0001 C CNN
F 1 "+3.3V" H 6415 3673 50  0000 C CNN
F 2 "" H 6400 3500 50  0001 C CNN
F 3 "" H 6400 3500 50  0001 C CNN
	1    6400 3500
	1    0    0    -1  
$EndComp
Text HLabel 4900 3750 0    50   Input ~ 0
ADC
Wire Wire Line
	6400 3500 6400 3550
Wire Wire Line
	6400 3550 6350 3550
Wire Wire Line
	6350 4250 6400 4250
Wire Wire Line
	6400 4250 6400 4300
Wire Wire Line
	4900 3750 4950 3750
Wire Wire Line
	4900 3850 4950 3850
Wire Wire Line
	4900 4050 4950 4050
$Comp
L 805_cap:Cap C?
U 1 1 6158C032
P 6400 3800
AR Path="/609302C0/6158C032" Ref="C?"  Part="1" 
AR Path="/6093034B/6158C032" Ref="C?"  Part="1" 
AR Path="/6092FBF4/6158C032" Ref="C?"  Part="1" 
AR Path="/6115C67C/6158C032" Ref="C?"  Part="1" 
AR Path="/61570E22/6158C032" Ref="C15"  Part="1" 
F 0 "C15" V 6404 3903 50  0000 L CNN
F 1 "100nF" V 6495 3903 50  0000 L CNN
F 2 "Capacitor_SMD:C_0805_2012Metric" H 6400 3800 50  0001 L BNN
F 3 "" H 6400 3800 50  0001 L BNN
	1    6400 3800
	0    1    1    0   
$EndComp
Wire Wire Line
	6400 3700 6400 3550
Connection ~ 6400 3550
Wire Wire Line
	6400 4000 6400 4250
Connection ~ 6400 4250
$EndSCHEMATC
