(kicad_sch (version 20211123) (generator eeschema)

  (uuid 10e52e95-44f3-4059-a86d-dcda603e0623)

  (paper "A4")

  (lib_symbols
    (symbol "805_cap:Cap" (pin_names (offset 1.016) hide) (in_bom yes) (on_board yes)
      (property "Reference" "C" (id 0) (at 0 3.81 0)
        (effects (font (size 1.27 1.27)) (justify left bottom))
      )
      (property "Value" "Cap" (id 1) (at 0 -5.08 0)
        (effects (font (size 1.27 1.27)) (justify left bottom))
      )
      (property "Footprint" "CAPC2012X135N" (id 2) (at 0 0 0)
        (effects (font (size 1.27 1.27)) (justify left bottom) hide)
      )
      (property "Datasheet" "" (id 3) (at 0 0 0)
        (effects (font (size 1.27 1.27)) (justify left bottom) hide)
      )
      (property "ki_locked" "" (id 4) (at 0 0 0)
        (effects (font (size 1.27 1.27)))
      )
      (symbol "Cap_0_0"
        (rectangle (start 0 -1.905) (end 0.635 1.905)
          (stroke (width 0) (type default) (color 0 0 0 0))
          (fill (type outline))
        )
        (rectangle (start 1.905 -1.905) (end 2.54 1.905)
          (stroke (width 0) (type default) (color 0 0 0 0))
          (fill (type outline))
        )
        (pin passive line (at 5.08 0 180) (length 2.54)
          (name "~" (effects (font (size 1.016 1.016))))
          (number "1" (effects (font (size 1.016 1.016))))
        )
        (pin passive line (at -2.54 0 0) (length 2.54)
          (name "~" (effects (font (size 1.016 1.016))))
          (number "2" (effects (font (size 1.016 1.016))))
        )
      )
    )
    (symbol "Device:R_US" (pin_numbers hide) (pin_names (offset 0)) (in_bom yes) (on_board yes)
      (property "Reference" "R" (id 0) (at 2.54 0 90)
        (effects (font (size 1.27 1.27)))
      )
      (property "Value" "R_US" (id 1) (at -2.54 0 90)
        (effects (font (size 1.27 1.27)))
      )
      (property "Footprint" "" (id 2) (at 1.016 -0.254 90)
        (effects (font (size 1.27 1.27)) hide)
      )
      (property "Datasheet" "~" (id 3) (at 0 0 0)
        (effects (font (size 1.27 1.27)) hide)
      )
      (property "ki_keywords" "R res resistor" (id 4) (at 0 0 0)
        (effects (font (size 1.27 1.27)) hide)
      )
      (property "ki_description" "Resistor, US symbol" (id 5) (at 0 0 0)
        (effects (font (size 1.27 1.27)) hide)
      )
      (property "ki_fp_filters" "R_*" (id 6) (at 0 0 0)
        (effects (font (size 1.27 1.27)) hide)
      )
      (symbol "R_US_0_1"
        (polyline
          (pts
            (xy 0 -2.286)
            (xy 0 -2.54)
          )
          (stroke (width 0) (type default) (color 0 0 0 0))
          (fill (type none))
        )
        (polyline
          (pts
            (xy 0 2.286)
            (xy 0 2.54)
          )
          (stroke (width 0) (type default) (color 0 0 0 0))
          (fill (type none))
        )
        (polyline
          (pts
            (xy 0 -0.762)
            (xy 1.016 -1.143)
            (xy 0 -1.524)
            (xy -1.016 -1.905)
            (xy 0 -2.286)
          )
          (stroke (width 0) (type default) (color 0 0 0 0))
          (fill (type none))
        )
        (polyline
          (pts
            (xy 0 0.762)
            (xy 1.016 0.381)
            (xy 0 0)
            (xy -1.016 -0.381)
            (xy 0 -0.762)
          )
          (stroke (width 0) (type default) (color 0 0 0 0))
          (fill (type none))
        )
        (polyline
          (pts
            (xy 0 2.286)
            (xy 1.016 1.905)
            (xy 0 1.524)
            (xy -1.016 1.143)
            (xy 0 0.762)
          )
          (stroke (width 0) (type default) (color 0 0 0 0))
          (fill (type none))
        )
      )
      (symbol "R_US_1_1"
        (pin passive line (at 0 3.81 270) (length 1.27)
          (name "~" (effects (font (size 1.27 1.27))))
          (number "1" (effects (font (size 1.27 1.27))))
        )
        (pin passive line (at 0 -3.81 90) (length 1.27)
          (name "~" (effects (font (size 1.27 1.27))))
          (number "2" (effects (font (size 1.27 1.27))))
        )
      )
    )
    (symbol "FFC2B28-24-G:FFC2B28-24-G" (pin_names (offset 1.016)) (in_bom yes) (on_board yes)
      (property "Reference" "J" (id 0) (at -5.08 33.782 0)
        (effects (font (size 1.27 1.27)) (justify left bottom))
      )
      (property "Value" "FFC2B28-24-G" (id 1) (at -5.08 -38.1 0)
        (effects (font (size 1.27 1.27)) (justify left bottom))
      )
      (property "Footprint" "GCT_FFC2B28-24-G" (id 2) (at 0 0 0)
        (effects (font (size 1.27 1.27)) (justify left bottom) hide)
      )
      (property "Datasheet" "" (id 3) (at 0 0 0)
        (effects (font (size 1.27 1.27)) (justify left bottom) hide)
      )
      (property "STANDARD" "Manufacturer Recommendations" (id 4) (at 0 0 0)
        (effects (font (size 1.27 1.27)) (justify left bottom) hide)
      )
      (property "MAXIMUM_PACKAGE_HEIGHT" "1.75mm" (id 5) (at 0 0 0)
        (effects (font (size 1.27 1.27)) (justify left bottom) hide)
      )
      (property "PARTREV" "A" (id 6) (at 0 0 0)
        (effects (font (size 1.27 1.27)) (justify left bottom) hide)
      )
      (property "MANUFACTURER" "GCT" (id 7) (at 0 0 0)
        (effects (font (size 1.27 1.27)) (justify left bottom) hide)
      )
      (property "ki_locked" "" (id 8) (at 0 0 0)
        (effects (font (size 1.27 1.27)))
      )
      (symbol "FFC2B28-24-G_0_0"
        (rectangle (start -5.08 -35.56) (end 5.08 33.02)
          (stroke (width 0.254) (type default) (color 0 0 0 0))
          (fill (type background))
        )
        (pin passive line (at -10.16 30.48 0) (length 5.08)
          (name "1" (effects (font (size 1.016 1.016))))
          (number "1" (effects (font (size 1.016 1.016))))
        )
        (pin passive line (at -10.16 7.62 0) (length 5.08)
          (name "10" (effects (font (size 1.016 1.016))))
          (number "10" (effects (font (size 1.016 1.016))))
        )
        (pin passive line (at -10.16 5.08 0) (length 5.08)
          (name "11" (effects (font (size 1.016 1.016))))
          (number "11" (effects (font (size 1.016 1.016))))
        )
        (pin passive line (at -10.16 2.54 0) (length 5.08)
          (name "12" (effects (font (size 1.016 1.016))))
          (number "12" (effects (font (size 1.016 1.016))))
        )
        (pin passive line (at -10.16 0 0) (length 5.08)
          (name "13" (effects (font (size 1.016 1.016))))
          (number "13" (effects (font (size 1.016 1.016))))
        )
        (pin passive line (at -10.16 -2.54 0) (length 5.08)
          (name "14" (effects (font (size 1.016 1.016))))
          (number "14" (effects (font (size 1.016 1.016))))
        )
        (pin passive line (at -10.16 -5.08 0) (length 5.08)
          (name "15" (effects (font (size 1.016 1.016))))
          (number "15" (effects (font (size 1.016 1.016))))
        )
        (pin passive line (at -10.16 -7.62 0) (length 5.08)
          (name "16" (effects (font (size 1.016 1.016))))
          (number "16" (effects (font (size 1.016 1.016))))
        )
        (pin passive line (at -10.16 -10.16 0) (length 5.08)
          (name "17" (effects (font (size 1.016 1.016))))
          (number "17" (effects (font (size 1.016 1.016))))
        )
        (pin passive line (at -10.16 -12.7 0) (length 5.08)
          (name "18" (effects (font (size 1.016 1.016))))
          (number "18" (effects (font (size 1.016 1.016))))
        )
        (pin passive line (at -10.16 -15.24 0) (length 5.08)
          (name "19" (effects (font (size 1.016 1.016))))
          (number "19" (effects (font (size 1.016 1.016))))
        )
        (pin passive line (at -10.16 27.94 0) (length 5.08)
          (name "2" (effects (font (size 1.016 1.016))))
          (number "2" (effects (font (size 1.016 1.016))))
        )
        (pin passive line (at -10.16 -17.78 0) (length 5.08)
          (name "20" (effects (font (size 1.016 1.016))))
          (number "20" (effects (font (size 1.016 1.016))))
        )
        (pin passive line (at -10.16 -20.32 0) (length 5.08)
          (name "21" (effects (font (size 1.016 1.016))))
          (number "21" (effects (font (size 1.016 1.016))))
        )
        (pin passive line (at -10.16 -22.86 0) (length 5.08)
          (name "22" (effects (font (size 1.016 1.016))))
          (number "22" (effects (font (size 1.016 1.016))))
        )
        (pin passive line (at -10.16 -25.4 0) (length 5.08)
          (name "23" (effects (font (size 1.016 1.016))))
          (number "23" (effects (font (size 1.016 1.016))))
        )
        (pin passive line (at -10.16 -27.94 0) (length 5.08)
          (name "24" (effects (font (size 1.016 1.016))))
          (number "24" (effects (font (size 1.016 1.016))))
        )
        (pin passive line (at -10.16 25.4 0) (length 5.08)
          (name "3" (effects (font (size 1.016 1.016))))
          (number "3" (effects (font (size 1.016 1.016))))
        )
        (pin passive line (at -10.16 22.86 0) (length 5.08)
          (name "4" (effects (font (size 1.016 1.016))))
          (number "4" (effects (font (size 1.016 1.016))))
        )
        (pin passive line (at -10.16 20.32 0) (length 5.08)
          (name "5" (effects (font (size 1.016 1.016))))
          (number "5" (effects (font (size 1.016 1.016))))
        )
        (pin passive line (at -10.16 17.78 0) (length 5.08)
          (name "6" (effects (font (size 1.016 1.016))))
          (number "6" (effects (font (size 1.016 1.016))))
        )
        (pin passive line (at -10.16 15.24 0) (length 5.08)
          (name "7" (effects (font (size 1.016 1.016))))
          (number "7" (effects (font (size 1.016 1.016))))
        )
        (pin passive line (at -10.16 12.7 0) (length 5.08)
          (name "8" (effects (font (size 1.016 1.016))))
          (number "8" (effects (font (size 1.016 1.016))))
        )
        (pin passive line (at -10.16 10.16 0) (length 5.08)
          (name "9" (effects (font (size 1.016 1.016))))
          (number "9" (effects (font (size 1.016 1.016))))
        )
        (pin passive line (at -10.16 -33.02 0) (length 5.08)
          (name "SHIELD" (effects (font (size 1.016 1.016))))
          (number "S1" (effects (font (size 1.016 1.016))))
        )
        (pin passive line (at -10.16 -33.02 0) (length 5.08)
          (name "SHIELD" (effects (font (size 1.016 1.016))))
          (number "S2" (effects (font (size 1.016 1.016))))
        )
      )
    )
    (symbol "power:+1V2" (power) (pin_names (offset 0)) (in_bom yes) (on_board yes)
      (property "Reference" "#PWR" (id 0) (at 0 -3.81 0)
        (effects (font (size 1.27 1.27)) hide)
      )
      (property "Value" "+1V2" (id 1) (at 0 3.556 0)
        (effects (font (size 1.27 1.27)))
      )
      (property "Footprint" "" (id 2) (at 0 0 0)
        (effects (font (size 1.27 1.27)) hide)
      )
      (property "Datasheet" "" (id 3) (at 0 0 0)
        (effects (font (size 1.27 1.27)) hide)
      )
      (property "ki_keywords" "power-flag" (id 4) (at 0 0 0)
        (effects (font (size 1.27 1.27)) hide)
      )
      (property "ki_description" "Power symbol creates a global label with name \"+1V2\"" (id 5) (at 0 0 0)
        (effects (font (size 1.27 1.27)) hide)
      )
      (symbol "+1V2_0_1"
        (polyline
          (pts
            (xy -0.762 1.27)
            (xy 0 2.54)
          )
          (stroke (width 0) (type default) (color 0 0 0 0))
          (fill (type none))
        )
        (polyline
          (pts
            (xy 0 0)
            (xy 0 2.54)
          )
          (stroke (width 0) (type default) (color 0 0 0 0))
          (fill (type none))
        )
        (polyline
          (pts
            (xy 0 2.54)
            (xy 0.762 1.27)
          )
          (stroke (width 0) (type default) (color 0 0 0 0))
          (fill (type none))
        )
      )
      (symbol "+1V2_1_1"
        (pin power_in line (at 0 0 90) (length 0) hide
          (name "+1V2" (effects (font (size 1.27 1.27))))
          (number "1" (effects (font (size 1.27 1.27))))
        )
      )
    )
    (symbol "power:+2V8" (power) (pin_names (offset 0)) (in_bom yes) (on_board yes)
      (property "Reference" "#PWR" (id 0) (at 0 -3.81 0)
        (effects (font (size 1.27 1.27)) hide)
      )
      (property "Value" "+2V8" (id 1) (at 0 3.556 0)
        (effects (font (size 1.27 1.27)))
      )
      (property "Footprint" "" (id 2) (at 0 0 0)
        (effects (font (size 1.27 1.27)) hide)
      )
      (property "Datasheet" "" (id 3) (at 0 0 0)
        (effects (font (size 1.27 1.27)) hide)
      )
      (property "ki_keywords" "power-flag" (id 4) (at 0 0 0)
        (effects (font (size 1.27 1.27)) hide)
      )
      (property "ki_description" "Power symbol creates a global label with name \"+2V8\"" (id 5) (at 0 0 0)
        (effects (font (size 1.27 1.27)) hide)
      )
      (symbol "+2V8_0_1"
        (polyline
          (pts
            (xy -0.762 1.27)
            (xy 0 2.54)
          )
          (stroke (width 0) (type default) (color 0 0 0 0))
          (fill (type none))
        )
        (polyline
          (pts
            (xy 0 0)
            (xy 0 2.54)
          )
          (stroke (width 0) (type default) (color 0 0 0 0))
          (fill (type none))
        )
        (polyline
          (pts
            (xy 0 2.54)
            (xy 0.762 1.27)
          )
          (stroke (width 0) (type default) (color 0 0 0 0))
          (fill (type none))
        )
      )
      (symbol "+2V8_1_1"
        (pin power_in line (at 0 0 90) (length 0) hide
          (name "+2V8" (effects (font (size 1.27 1.27))))
          (number "1" (effects (font (size 1.27 1.27))))
        )
      )
    )
    (symbol "power:+3V0" (power) (pin_names (offset 0)) (in_bom yes) (on_board yes)
      (property "Reference" "#PWR" (id 0) (at 0 -3.81 0)
        (effects (font (size 1.27 1.27)) hide)
      )
      (property "Value" "+3V0" (id 1) (at 0 3.556 0)
        (effects (font (size 1.27 1.27)))
      )
      (property "Footprint" "" (id 2) (at 0 0 0)
        (effects (font (size 1.27 1.27)) hide)
      )
      (property "Datasheet" "" (id 3) (at 0 0 0)
        (effects (font (size 1.27 1.27)) hide)
      )
      (property "ki_keywords" "power-flag" (id 4) (at 0 0 0)
        (effects (font (size 1.27 1.27)) hide)
      )
      (property "ki_description" "Power symbol creates a global label with name \"+3V0\"" (id 5) (at 0 0 0)
        (effects (font (size 1.27 1.27)) hide)
      )
      (symbol "+3V0_0_1"
        (polyline
          (pts
            (xy -0.762 1.27)
            (xy 0 2.54)
          )
          (stroke (width 0) (type default) (color 0 0 0 0))
          (fill (type none))
        )
        (polyline
          (pts
            (xy 0 0)
            (xy 0 2.54)
          )
          (stroke (width 0) (type default) (color 0 0 0 0))
          (fill (type none))
        )
        (polyline
          (pts
            (xy 0 2.54)
            (xy 0.762 1.27)
          )
          (stroke (width 0) (type default) (color 0 0 0 0))
          (fill (type none))
        )
      )
      (symbol "+3V0_1_1"
        (pin power_in line (at 0 0 90) (length 0) hide
          (name "+3V0" (effects (font (size 1.27 1.27))))
          (number "1" (effects (font (size 1.27 1.27))))
        )
      )
    )
    (symbol "power:GND" (power) (pin_names (offset 0)) (in_bom yes) (on_board yes)
      (property "Reference" "#PWR" (id 0) (at 0 -6.35 0)
        (effects (font (size 1.27 1.27)) hide)
      )
      (property "Value" "GND" (id 1) (at 0 -3.81 0)
        (effects (font (size 1.27 1.27)))
      )
      (property "Footprint" "" (id 2) (at 0 0 0)
        (effects (font (size 1.27 1.27)) hide)
      )
      (property "Datasheet" "" (id 3) (at 0 0 0)
        (effects (font (size 1.27 1.27)) hide)
      )
      (property "ki_keywords" "power-flag" (id 4) (at 0 0 0)
        (effects (font (size 1.27 1.27)) hide)
      )
      (property "ki_description" "Power symbol creates a global label with name \"GND\" , ground" (id 5) (at 0 0 0)
        (effects (font (size 1.27 1.27)) hide)
      )
      (symbol "GND_0_1"
        (polyline
          (pts
            (xy 0 0)
            (xy 0 -1.27)
            (xy 1.27 -1.27)
            (xy 0 -2.54)
            (xy -1.27 -1.27)
            (xy 0 -1.27)
          )
          (stroke (width 0) (type default) (color 0 0 0 0))
          (fill (type none))
        )
      )
      (symbol "GND_1_1"
        (pin power_in line (at 0 0 270) (length 0) hide
          (name "GND" (effects (font (size 1.27 1.27))))
          (number "1" (effects (font (size 1.27 1.27))))
        )
      )
    )
  )

  (junction (at 135.89 120.65) (diameter 0) (color 0 0 0 0)
    (uuid 75b944f9-bf25-4dc7-8104-e9f80b4f359b)
  )
  (junction (at 111.76 74.93) (diameter 0) (color 0 0 0 0)
    (uuid 78f9c3d3-3556-46f6-9744-05ad54b330f0)
  )

  (no_connect (at 139.7 115.57) (uuid 363945f6-fbef-42be-99cf-4a8a48434d92))
  (no_connect (at 139.7 57.15) (uuid 8ac400bf-c9b3-4af4-b0a7-9aa9ab4ad17e))
  (no_connect (at 139.7 59.69) (uuid 97dcf785-3264-40a1-a36e-8842acab24fb))

  (wire (pts (xy 138.43 95.25) (xy 139.7 95.25))
    (stroke (width 0) (type default) (color 0 0 0 0))
    (uuid 014d13cd-26ad-4d0e-86ad-a43b541cab14)
  )
  (wire (pts (xy 138.43 62.23) (xy 139.7 62.23))
    (stroke (width 0) (type default) (color 0 0 0 0))
    (uuid 0cbeb329-a88d-4a47-a5c2-a1d693de2f8c)
  )
  (wire (pts (xy 111.76 74.93) (xy 109.22 74.93))
    (stroke (width 0) (type default) (color 0 0 0 0))
    (uuid 1427bb3f-0689-4b41-a816-cd79a5202fd0)
  )
  (wire (pts (xy 115.57 99.06) (xy 115.57 97.79))
    (stroke (width 0) (type default) (color 0 0 0 0))
    (uuid 1cb22080-0f59-4c18-a6e6-8685ef44ec53)
  )
  (wire (pts (xy 92.71 113.03) (xy 92.71 111.76))
    (stroke (width 0) (type default) (color 0 0 0 0))
    (uuid 212bf70c-2324-47d9-8700-59771063baeb)
  )
  (wire (pts (xy 97.79 113.03) (xy 92.71 113.03))
    (stroke (width 0) (type default) (color 0 0 0 0))
    (uuid 3249bd81-9fd4-4194-9b4f-2e333b2195b8)
  )
  (wire (pts (xy 139.7 120.65) (xy 135.89 120.65))
    (stroke (width 0) (type default) (color 0 0 0 0))
    (uuid 3c9169cc-3a77-4ae0-8afc-cbfc472a28c5)
  )
  (wire (pts (xy 135.89 113.03) (xy 135.89 120.65))
    (stroke (width 0) (type default) (color 0 0 0 0))
    (uuid 3e57b728-64e6-4470-8f27-a43c0dd85050)
  )
  (wire (pts (xy 138.43 77.47) (xy 139.7 77.47))
    (stroke (width 0) (type default) (color 0 0 0 0))
    (uuid 443bc73a-8dc0-4e2f-a292-a5eff00efa5b)
  )
  (wire (pts (xy 139.7 113.03) (xy 135.89 113.03))
    (stroke (width 0) (type default) (color 0 0 0 0))
    (uuid 5f31b97b-d794-46d6-bbd9-7a5638bcf704)
  )
  (wire (pts (xy 138.43 105.41) (xy 139.7 105.41))
    (stroke (width 0) (type default) (color 0 0 0 0))
    (uuid 633292d3-80c5-4986-be82-ce926e9f09f4)
  )
  (wire (pts (xy 111.76 85.09) (xy 111.76 83.82))
    (stroke (width 0) (type default) (color 0 0 0 0))
    (uuid 637f12be-fa48-4ce4-96b2-04c21a8795c8)
  )
  (wire (pts (xy 124.46 107.95) (xy 139.7 107.95))
    (stroke (width 0) (type default) (color 0 0 0 0))
    (uuid 701e1517-e8cf-46f4-b538-98e721c97380)
  )
  (wire (pts (xy 115.57 97.79) (xy 139.7 97.79))
    (stroke (width 0) (type default) (color 0 0 0 0))
    (uuid 718e5c6d-0e4c-46d8-a149-2f2bfc54c7f1)
  )
  (wire (pts (xy 138.43 100.33) (xy 139.7 100.33))
    (stroke (width 0) (type default) (color 0 0 0 0))
    (uuid 7744b6ee-910d-401d-b730-65c35d3d8092)
  )
  (wire (pts (xy 95.25 93.98) (xy 95.25 95.25))
    (stroke (width 0) (type default) (color 0 0 0 0))
    (uuid 7c5f3091-7791-43b3-8d50-43f6a72274c9)
  )
  (wire (pts (xy 138.43 67.31) (xy 139.7 67.31))
    (stroke (width 0) (type default) (color 0 0 0 0))
    (uuid 810ed4ff-ffe2-4032-9af6-fb5ada3bae5b)
  )
  (wire (pts (xy 138.43 85.09) (xy 139.7 85.09))
    (stroke (width 0) (type default) (color 0 0 0 0))
    (uuid 83021f70-e61e-4ad3-bae7-b9f02b28be4f)
  )
  (wire (pts (xy 139.7 74.93) (xy 111.76 74.93))
    (stroke (width 0) (type default) (color 0 0 0 0))
    (uuid 89c9afdc-c346-4300-a392-5f9dd8c1e5bd)
  )
  (wire (pts (xy 111.76 76.2) (xy 111.76 74.93))
    (stroke (width 0) (type default) (color 0 0 0 0))
    (uuid 8b7bbefd-8f78-41f8-809c-2534a5de3b39)
  )
  (wire (pts (xy 138.43 87.63) (xy 139.7 87.63))
    (stroke (width 0) (type default) (color 0 0 0 0))
    (uuid a25b7e01-1754-4cc9-8a14-3d9c461e5af5)
  )
  (wire (pts (xy 139.7 92.71) (xy 120.65 92.71))
    (stroke (width 0) (type default) (color 0 0 0 0))
    (uuid b854a395-bfc6-4140-9640-75d4f9296771)
  )
  (wire (pts (xy 135.89 121.92) (xy 135.89 120.65))
    (stroke (width 0) (type default) (color 0 0 0 0))
    (uuid bac7c5b3-99df-445a-ade9-1e608bbbe27e)
  )
  (wire (pts (xy 107.95 113.03) (xy 105.41 113.03))
    (stroke (width 0) (type default) (color 0 0 0 0))
    (uuid cbde200f-1075-469a-89f8-abbdcf30e36a)
  )
  (wire (pts (xy 138.43 82.55) (xy 139.7 82.55))
    (stroke (width 0) (type default) (color 0 0 0 0))
    (uuid cc75e5ae-3348-4e7a-bd16-4df685ee47bd)
  )
  (wire (pts (xy 129.54 102.87) (xy 139.7 102.87))
    (stroke (width 0) (type default) (color 0 0 0 0))
    (uuid cee2f43a-7d22-4585-a857-73949bd17a9d)
  )
  (wire (pts (xy 139.7 90.17) (xy 124.46 90.17))
    (stroke (width 0) (type default) (color 0 0 0 0))
    (uuid d0cd3439-276c-41ba-b38d-f84f6da38415)
  )
  (wire (pts (xy 138.43 110.49) (xy 139.7 110.49))
    (stroke (width 0) (type default) (color 0 0 0 0))
    (uuid dda1e6ca-91ec-4136-b90b-3c54d79454b9)
  )
  (wire (pts (xy 138.43 72.39) (xy 139.7 72.39))
    (stroke (width 0) (type default) (color 0 0 0 0))
    (uuid eac8d865-0226-4958-b547-6b5592f39713)
  )
  (wire (pts (xy 138.43 69.85) (xy 139.7 69.85))
    (stroke (width 0) (type default) (color 0 0 0 0))
    (uuid f2480d0c-9b08-4037-9175-b2369af04d4c)
  )
  (wire (pts (xy 138.43 64.77) (xy 139.7 64.77))
    (stroke (width 0) (type default) (color 0 0 0 0))
    (uuid f345e52a-8e0a-425a-b438-90809dd3b799)
  )
  (wire (pts (xy 120.65 80.01) (xy 139.7 80.01))
    (stroke (width 0) (type default) (color 0 0 0 0))
    (uuid f5bf5b4a-5213-48af-a5cd-0d67969d2de6)
  )
  (wire (pts (xy 95.25 85.09) (xy 95.25 86.36))
    (stroke (width 0) (type default) (color 0 0 0 0))
    (uuid f5c43e09-08d6-4a29-a53a-3b9ea7fb34cd)
  )

  (label "CAM_RST" (at 129.54 102.87 0)
    (effects (font (size 1.27 1.27)) (justify left bottom))
    (uuid 44035e53-ff94-45ad-801f-55a1ce042a0d)
  )
  (label "CAM_RST" (at 107.95 113.03 0)
    (effects (font (size 1.27 1.27)) (justify left bottom))
    (uuid be2983fa-f06e-485e-bea1-3dd96b916ec5)
  )

  (hierarchical_label "CSI_VSYNC" (shape input) (at 138.43 100.33 180)
    (effects (font (size 1.27 1.27)) (justify right))
    (uuid 1ab71a3c-340b-469a-ada5-4f87f0b7b2fa)
  )
  (hierarchical_label "CSI_D3" (shape input) (at 138.43 67.31 180)
    (effects (font (size 1.27 1.27)) (justify right))
    (uuid 20caf6d2-76a7-497e-ac56-f6d31eb9027b)
  )
  (hierarchical_label "CSI_D0" (shape input) (at 138.43 69.85 180)
    (effects (font (size 1.27 1.27)) (justify right))
    (uuid 2f291a4b-4ecb-4692-9ad2-324f9784c0d4)
  )
  (hierarchical_label "CSI_D6" (shape input) (at 138.43 82.55 180)
    (effects (font (size 1.27 1.27)) (justify right))
    (uuid 319639ae-c2c5-486d-93b1-d03bb1b64252)
  )
  (hierarchical_label "CSI_D5" (shape input) (at 138.43 77.47 180)
    (effects (font (size 1.27 1.27)) (justify right))
    (uuid 3a70978e-dcc2-4620-a99c-514362812927)
  )
  (hierarchical_label "CSI_PCLK" (shape input) (at 109.22 74.93 180)
    (effects (font (size 1.27 1.27)) (justify right))
    (uuid 62a1f3d4-027d-4ecf-a37a-6fcf4263e9d2)
  )
  (hierarchical_label "CSI_D1" (shape input) (at 138.43 64.77 180)
    (effects (font (size 1.27 1.27)) (justify right))
    (uuid 759788bd-3cb9-4d38-b58c-5cb10b7dca6b)
  )
  (hierarchical_label "TWI_SDA" (shape input) (at 138.43 110.49 180)
    (effects (font (size 1.27 1.27)) (justify right))
    (uuid 97581b9a-3f6b-4e88-8768-6fdb60e6aca6)
  )
  (hierarchical_label "CSI_D7" (shape input) (at 138.43 87.63 180)
    (effects (font (size 1.27 1.27)) (justify right))
    (uuid a5c8e189-1ddc-4a66-984b-e0fd1529d346)
  )
  (hierarchical_label "CSI_HSYNC" (shape input) (at 138.43 95.25 180)
    (effects (font (size 1.27 1.27)) (justify right))
    (uuid c71f56c1-5b7c-4373-9716-fffac482104c)
  )
  (hierarchical_label "TWI_SCK" (shape input) (at 138.43 105.41 180)
    (effects (font (size 1.27 1.27)) (justify right))
    (uuid dbe92a0d-89cb-4d3f-9497-c2c1d93a3018)
  )
  (hierarchical_label "CSI_D4" (shape input) (at 138.43 72.39 180)
    (effects (font (size 1.27 1.27)) (justify right))
    (uuid f447e585-df78-4239-b8cb-4653b3837bb1)
  )
  (hierarchical_label "CSI_D2" (shape input) (at 138.43 62.23 180)
    (effects (font (size 1.27 1.27)) (justify right))
    (uuid f44d04c5-0d17-4d52-8328-ef3b4fdfba5f)
  )
  (hierarchical_label "CSI_MCLK" (shape input) (at 138.43 85.09 180)
    (effects (font (size 1.27 1.27)) (justify right))
    (uuid fc4ad874-c922-4070-89f9-7262080469d8)
  )

  (symbol (lib_id "FFC2B28-24-G:FFC2B28-24-G") (at 149.86 87.63 0) (unit 1)
    (in_bom yes) (on_board yes)
    (uuid 00000000-0000-0000-0000-000061138a5e)
    (property "Reference" "J5" (id 0) (at 155.702 87.7316 0)
      (effects (font (size 1.27 1.27)) (justify left))
    )
    (property "Value" "FFC2B28-24-G" (id 1) (at 155.702 90.043 0)
      (effects (font (size 1.27 1.27)) (justify left))
    )
    (property "Footprint" "others:FFC2B28-24-G" (id 2) (at 149.86 87.63 0)
      (effects (font (size 1.27 1.27)) (justify left bottom) hide)
    )
    (property "Datasheet" "" (id 3) (at 149.86 87.63 0)
      (effects (font (size 1.27 1.27)) (justify left bottom) hide)
    )
    (property "STANDARD" "Manufacturer Recommendations" (id 4) (at 149.86 87.63 0)
      (effects (font (size 1.27 1.27)) (justify left bottom) hide)
    )
    (property "MAXIMUM_PACKAGE_HEIGHT" "1.75mm" (id 5) (at 149.86 87.63 0)
      (effects (font (size 1.27 1.27)) (justify left bottom) hide)
    )
    (property "PARTREV" "A" (id 6) (at 149.86 87.63 0)
      (effects (font (size 1.27 1.27)) (justify left bottom) hide)
    )
    (property "MANUFACTURER" "GCT" (id 7) (at 149.86 87.63 0)
      (effects (font (size 1.27 1.27)) (justify left bottom) hide)
    )
    (pin "1" (uuid c149a83a-e564-4b0a-a9e4-466589dfee66))
    (pin "10" (uuid 3ddd8b4b-dbe2-4bcd-bb22-e295cd4ebd3e))
    (pin "11" (uuid b6820548-7b63-445b-b165-ec3c1d59d8b1))
    (pin "12" (uuid a2d9feed-0889-4c4a-a318-f758e00f26a0))
    (pin "13" (uuid a65a9ab6-0b5f-4916-ac68-7ba27713fcfa))
    (pin "14" (uuid 1aecac82-367a-4f90-bfaf-e38058014022))
    (pin "15" (uuid 31bf875f-d468-4225-9226-3660f2d51a09))
    (pin "16" (uuid 50111c35-1704-4bda-8362-8284918cf7ab))
    (pin "17" (uuid 6ad76dec-4e79-4b51-8cdb-5a433f60c986))
    (pin "18" (uuid 9a433a0f-766c-4331-bf35-682b954f8034))
    (pin "19" (uuid 9e6e667b-24fe-4689-8b8a-a6a3952789be))
    (pin "2" (uuid df918fb4-d41c-482f-aedc-3b8c96d06eaf))
    (pin "20" (uuid cb632b00-c968-40d6-ba5d-cd7b4945cf5f))
    (pin "21" (uuid 1bd8bbf7-ab8a-476a-a905-5c29b1fb5cc3))
    (pin "22" (uuid f666cb93-df9b-4b3f-b89c-252f7826f9a8))
    (pin "23" (uuid 5f7fd090-8457-48c9-bf75-ed5257b4cbc5))
    (pin "24" (uuid a4f69329-0f05-4e94-b358-8ca236cb1af3))
    (pin "3" (uuid d0e231ca-104f-4ca7-af34-c298de29e2d0))
    (pin "4" (uuid 89fbeeaa-1245-4082-a630-b68b08abcf06))
    (pin "5" (uuid 8d96e49b-830f-48b4-a7a4-625adb5aae21))
    (pin "6" (uuid 5f868e9d-414c-4552-a47d-cdef30635a50))
    (pin "7" (uuid 3411aa83-ed36-4e61-a373-c5d0fa7de01c))
    (pin "8" (uuid a6a523ea-6455-4ed5-b384-734b4ef6c606))
    (pin "9" (uuid 42f0c85e-b71c-493c-8800-dccfb154756b))
    (pin "S1" (uuid a9951110-2990-49a1-831e-bccdef3946c3))
    (pin "S2" (uuid 015d0d94-1edd-4685-b5dd-490d0b3cdff9))
  )

  (symbol (lib_id "power:+1V2") (at 120.65 92.71 0) (unit 1)
    (in_bom yes) (on_board yes)
    (uuid 00000000-0000-0000-0000-0000611d016a)
    (property "Reference" "#PWR063" (id 0) (at 120.65 96.52 0)
      (effects (font (size 1.27 1.27)) hide)
    )
    (property "Value" "+1V2" (id 1) (at 121.031 88.3158 0))
    (property "Footprint" "" (id 2) (at 120.65 92.71 0)
      (effects (font (size 1.27 1.27)) hide)
    )
    (property "Datasheet" "" (id 3) (at 120.65 92.71 0)
      (effects (font (size 1.27 1.27)) hide)
    )
    (pin "1" (uuid 51da66ba-43f4-479d-9b57-827df5977a07))
  )

  (symbol (lib_id "power:+2V8") (at 124.46 107.95 0) (unit 1)
    (in_bom yes) (on_board yes)
    (uuid 00000000-0000-0000-0000-0000611d1ea6)
    (property "Reference" "#PWR067" (id 0) (at 124.46 111.76 0)
      (effects (font (size 1.27 1.27)) hide)
    )
    (property "Value" "+2V8" (id 1) (at 124.841 103.5558 0))
    (property "Footprint" "" (id 2) (at 124.46 107.95 0)
      (effects (font (size 1.27 1.27)) hide)
    )
    (property "Datasheet" "" (id 3) (at 124.46 107.95 0)
      (effects (font (size 1.27 1.27)) hide)
    )
    (pin "1" (uuid 9d23b66e-1bb5-4a6f-9772-b8d25945affb))
  )

  (symbol (lib_id "power:GND") (at 120.65 80.01 0) (unit 1)
    (in_bom yes) (on_board yes)
    (uuid 00000000-0000-0000-0000-0000611d3834)
    (property "Reference" "#PWR058" (id 0) (at 120.65 86.36 0)
      (effects (font (size 1.27 1.27)) hide)
    )
    (property "Value" "GND" (id 1) (at 120.777 84.4042 0))
    (property "Footprint" "" (id 2) (at 120.65 80.01 0)
      (effects (font (size 1.27 1.27)) hide)
    )
    (property "Datasheet" "" (id 3) (at 120.65 80.01 0)
      (effects (font (size 1.27 1.27)) hide)
    )
    (pin "1" (uuid aecc79f1-796e-45a4-86e0-bfd3383bb31c))
  )

  (symbol (lib_id "805_cap:Cap") (at 111.76 78.74 270) (unit 1)
    (in_bom yes) (on_board yes)
    (uuid 00000000-0000-0000-0000-0000611d5574)
    (property "Reference" "C23" (id 0) (at 114.3762 78.8416 90)
      (effects (font (size 1.27 1.27)) (justify left))
    )
    (property "Value" "15pF" (id 1) (at 114.3762 81.153 90)
      (effects (font (size 1.27 1.27)) (justify left))
    )
    (property "Footprint" "Capacitor_SMD:C_0805_2012Metric" (id 2) (at 111.76 78.74 0)
      (effects (font (size 1.27 1.27)) (justify left bottom) hide)
    )
    (property "Datasheet" "" (id 3) (at 111.76 78.74 0)
      (effects (font (size 1.27 1.27)) (justify left bottom) hide)
    )
    (pin "1" (uuid ff9b329b-5cea-45a3-8642-e02931706fc3))
    (pin "2" (uuid 05e67d17-a107-4493-8f76-a7168fb08558))
  )

  (symbol (lib_id "Device:R_US") (at 101.6 113.03 90) (unit 1)
    (in_bom yes) (on_board yes)
    (uuid 00000000-0000-0000-0000-0000611d6013)
    (property "Reference" "R19" (id 0) (at 99.06 111.76 90)
      (effects (font (size 1.27 1.27)) (justify left))
    )
    (property "Value" "10K" (id 1) (at 105.41 111.76 90)
      (effects (font (size 1.27 1.27)) (justify left))
    )
    (property "Footprint" "Resistor_SMD:R_0805_2012Metric" (id 2) (at 101.854 112.014 90)
      (effects (font (size 1.27 1.27)) hide)
    )
    (property "Datasheet" "~" (id 3) (at 101.6 113.03 0)
      (effects (font (size 1.27 1.27)) hide)
    )
    (pin "1" (uuid 99b51837-b8e1-4fd7-9bc0-5275d202260f))
    (pin "2" (uuid b668da4b-2a48-466f-85bc-92d52dd1853a))
  )

  (symbol (lib_id "power:GND") (at 111.76 85.09 0) (unit 1)
    (in_bom yes) (on_board yes)
    (uuid 00000000-0000-0000-0000-0000611e3c55)
    (property "Reference" "#PWR061" (id 0) (at 111.76 91.44 0)
      (effects (font (size 1.27 1.27)) hide)
    )
    (property "Value" "GND" (id 1) (at 111.887 89.4842 0))
    (property "Footprint" "" (id 2) (at 111.76 85.09 0)
      (effects (font (size 1.27 1.27)) hide)
    )
    (property "Datasheet" "" (id 3) (at 111.76 85.09 0)
      (effects (font (size 1.27 1.27)) hide)
    )
    (pin "1" (uuid 98dcabdf-7d56-445e-9277-66188c0f403b))
  )

  (symbol (lib_id "power:GND") (at 115.57 99.06 0) (unit 1)
    (in_bom yes) (on_board yes)
    (uuid 00000000-0000-0000-0000-0000611e4c2e)
    (property "Reference" "#PWR066" (id 0) (at 115.57 105.41 0)
      (effects (font (size 1.27 1.27)) hide)
    )
    (property "Value" "GND" (id 1) (at 115.697 103.4542 0))
    (property "Footprint" "" (id 2) (at 115.57 99.06 0)
      (effects (font (size 1.27 1.27)) hide)
    )
    (property "Datasheet" "" (id 3) (at 115.57 99.06 0)
      (effects (font (size 1.27 1.27)) hide)
    )
    (pin "1" (uuid c279ee5a-d0c7-4714-b60b-c319e4d6a479))
  )

  (symbol (lib_id "power:GND") (at 135.89 121.92 0) (unit 1)
    (in_bom yes) (on_board yes)
    (uuid 00000000-0000-0000-0000-0000611e671d)
    (property "Reference" "#PWR068" (id 0) (at 135.89 128.27 0)
      (effects (font (size 1.27 1.27)) hide)
    )
    (property "Value" "GND" (id 1) (at 136.017 126.3142 0))
    (property "Footprint" "" (id 2) (at 135.89 121.92 0)
      (effects (font (size 1.27 1.27)) hide)
    )
    (property "Datasheet" "" (id 3) (at 135.89 121.92 0)
      (effects (font (size 1.27 1.27)) hide)
    )
    (pin "1" (uuid 6f4e631e-a257-4ca6-ab24-95183f7b4492))
  )

  (symbol (lib_id "805_cap:Cap") (at 95.25 88.9 270) (unit 1)
    (in_bom yes) (on_board yes)
    (uuid 00000000-0000-0000-0000-0000611e9fb2)
    (property "Reference" "C24" (id 0) (at 97.8662 89.0016 90)
      (effects (font (size 1.27 1.27)) (justify left))
    )
    (property "Value" "100nF" (id 1) (at 97.8662 91.313 90)
      (effects (font (size 1.27 1.27)) (justify left))
    )
    (property "Footprint" "Capacitor_SMD:C_0805_2012Metric" (id 2) (at 95.25 88.9 0)
      (effects (font (size 1.27 1.27)) (justify left bottom) hide)
    )
    (property "Datasheet" "" (id 3) (at 95.25 88.9 0)
      (effects (font (size 1.27 1.27)) (justify left bottom) hide)
    )
    (pin "1" (uuid 56da0f13-f3fd-45be-9b53-d50461ae38bf))
    (pin "2" (uuid feb58745-67aa-4431-9d9c-3e6f33f301c3))
  )

  (symbol (lib_id "power:GND") (at 95.25 95.25 0) (unit 1)
    (in_bom yes) (on_board yes)
    (uuid 00000000-0000-0000-0000-0000611eccc1)
    (property "Reference" "#PWR064" (id 0) (at 95.25 101.6 0)
      (effects (font (size 1.27 1.27)) hide)
    )
    (property "Value" "GND" (id 1) (at 95.377 99.6442 0))
    (property "Footprint" "" (id 2) (at 95.25 95.25 0)
      (effects (font (size 1.27 1.27)) hide)
    )
    (property "Datasheet" "" (id 3) (at 95.25 95.25 0)
      (effects (font (size 1.27 1.27)) hide)
    )
    (pin "1" (uuid 78232cc5-7b0b-4c21-950b-5d1a54788840))
  )

  (symbol (lib_id "power:+3V0") (at 92.71 111.76 0) (unit 1)
    (in_bom yes) (on_board yes)
    (uuid 00000000-0000-0000-0000-0000611f19b7)
    (property "Reference" "#PWR0102" (id 0) (at 92.71 115.57 0)
      (effects (font (size 1.27 1.27)) hide)
    )
    (property "Value" "+3V0" (id 1) (at 93.091 107.3658 0))
    (property "Footprint" "" (id 2) (at 92.71 111.76 0)
      (effects (font (size 1.27 1.27)) hide)
    )
    (property "Datasheet" "" (id 3) (at 92.71 111.76 0)
      (effects (font (size 1.27 1.27)) hide)
    )
    (pin "1" (uuid 5bea131b-9b5d-46a4-835d-95664b220bff))
  )

  (symbol (lib_id "power:+3V0") (at 124.46 90.17 0) (unit 1)
    (in_bom yes) (on_board yes)
    (uuid 00000000-0000-0000-0000-0000611f3b91)
    (property "Reference" "#PWR0103" (id 0) (at 124.46 93.98 0)
      (effects (font (size 1.27 1.27)) hide)
    )
    (property "Value" "+3V0" (id 1) (at 124.841 85.7758 0))
    (property "Footprint" "" (id 2) (at 124.46 90.17 0)
      (effects (font (size 1.27 1.27)) hide)
    )
    (property "Datasheet" "" (id 3) (at 124.46 90.17 0)
      (effects (font (size 1.27 1.27)) hide)
    )
    (pin "1" (uuid 5247d984-7f9f-417f-8e7e-3a014e2c2aca))
  )

  (symbol (lib_id "power:+3V0") (at 95.25 85.09 0) (unit 1)
    (in_bom yes) (on_board yes)
    (uuid 00000000-0000-0000-0000-0000611f4509)
    (property "Reference" "#PWR0104" (id 0) (at 95.25 88.9 0)
      (effects (font (size 1.27 1.27)) hide)
    )
    (property "Value" "+3V0" (id 1) (at 95.631 80.6958 0))
    (property "Footprint" "" (id 2) (at 95.25 85.09 0)
      (effects (font (size 1.27 1.27)) hide)
    )
    (property "Datasheet" "" (id 3) (at 95.25 85.09 0)
      (effects (font (size 1.27 1.27)) hide)
    )
    (pin "1" (uuid 230f1b27-1b31-4a78-b9fd-58c1c32dc261))
  )
)
