(kicad_sch (version 20211123) (generator eeschema)

  (uuid 90f81af1-b6de-44aa-a46b-6504a157ce6c)

  (paper "A4")

  (lib_symbols
    (symbol "E22-900M22S:E22-900M22S" (pin_names (offset 1.016)) (in_bom yes) (on_board yes)
      (property "Reference" "U" (id 0) (at 0 0 0)
        (effects (font (size 1.27 1.27)) (justify left bottom) hide)
      )
      (property "Value" "E22-900M22S" (id 1) (at 0 0 0)
        (effects (font (size 1.27 1.27)) (justify left bottom) hide)
      )
      (property "Footprint" "E22-900M22S" (id 2) (at 0 0 0)
        (effects (font (size 1.27 1.27)) (justify left bottom) hide)
      )
      (property "Datasheet" "" (id 3) (at 0 0 0)
        (effects (font (size 1.27 1.27)) (justify left bottom) hide)
      )
      (property "ki_locked" "" (id 4) (at 0 0 0)
        (effects (font (size 1.27 1.27)))
      )
      (symbol "E22-900M22S_0_0"
        (rectangle (start -20.32 -10.16) (end 15.24 17.78)
          (stroke (width 0.254) (type default) (color 0 0 0 0))
          (fill (type background))
        )
        (pin bidirectional line (at -25.4 11.43 0) (length 5.08)
          (name "ANT" (effects (font (size 1.016 1.016))))
          (number "ANT" (effects (font (size 1.016 1.016))))
        )
        (pin bidirectional line (at -25.4 -5.08 0) (length 5.08)
          (name "GND1" (effects (font (size 1.016 1.016))))
          (number "P$1" (effects (font (size 1.016 1.016))))
        )
        (pin bidirectional line (at -25.4 -5.08 0) (length 5.08)
          (name "GND1" (effects (font (size 1.016 1.016))))
          (number "P$10" (effects (font (size 1.016 1.016))))
        )
        (pin bidirectional line (at -25.4 -5.08 0) (length 5.08)
          (name "GND1" (effects (font (size 1.016 1.016))))
          (number "P$11" (effects (font (size 1.016 1.016))))
        )
        (pin bidirectional line (at -25.4 -5.08 0) (length 5.08)
          (name "GND1" (effects (font (size 1.016 1.016))))
          (number "P$12" (effects (font (size 1.016 1.016))))
        )
        (pin bidirectional line (at 20.32 -5.08 180) (length 5.08)
          (name "DIO1" (effects (font (size 1.016 1.016))))
          (number "P$13" (effects (font (size 1.016 1.016))))
        )
        (pin bidirectional line (at 20.32 -2.54 180) (length 5.08)
          (name "BUSY" (effects (font (size 1.016 1.016))))
          (number "P$14" (effects (font (size 1.016 1.016))))
        )
        (pin bidirectional line (at 20.32 0 180) (length 5.08)
          (name "NRST" (effects (font (size 1.016 1.016))))
          (number "P$15" (effects (font (size 1.016 1.016))))
        )
        (pin bidirectional line (at 20.32 2.54 180) (length 5.08)
          (name "MISO" (effects (font (size 1.016 1.016))))
          (number "P$16" (effects (font (size 1.016 1.016))))
        )
        (pin bidirectional line (at 20.32 5.08 180) (length 5.08)
          (name "MOSI" (effects (font (size 1.016 1.016))))
          (number "P$17" (effects (font (size 1.016 1.016))))
        )
        (pin bidirectional line (at 20.32 7.62 180) (length 5.08)
          (name "SCK" (effects (font (size 1.016 1.016))))
          (number "P$18" (effects (font (size 1.016 1.016))))
        )
        (pin bidirectional line (at 20.32 10.16 180) (length 5.08)
          (name "NSS" (effects (font (size 1.016 1.016))))
          (number "P$19" (effects (font (size 1.016 1.016))))
        )
        (pin bidirectional line (at -25.4 -5.08 0) (length 5.08)
          (name "GND1" (effects (font (size 1.016 1.016))))
          (number "P$2" (effects (font (size 1.016 1.016))))
        )
        (pin bidirectional line (at -25.4 -5.08 0) (length 5.08)
          (name "GND1" (effects (font (size 1.016 1.016))))
          (number "P$20" (effects (font (size 1.016 1.016))))
        )
        (pin bidirectional line (at -25.4 -5.08 0) (length 5.08)
          (name "GND1" (effects (font (size 1.016 1.016))))
          (number "P$22" (effects (font (size 1.016 1.016))))
        )
        (pin bidirectional line (at -25.4 -5.08 0) (length 5.08)
          (name "GND1" (effects (font (size 1.016 1.016))))
          (number "P$3" (effects (font (size 1.016 1.016))))
        )
        (pin bidirectional line (at -25.4 -5.08 0) (length 5.08)
          (name "GND1" (effects (font (size 1.016 1.016))))
          (number "P$4" (effects (font (size 1.016 1.016))))
        )
        (pin bidirectional line (at -25.4 -5.08 0) (length 5.08)
          (name "GND1" (effects (font (size 1.016 1.016))))
          (number "P$5" (effects (font (size 1.016 1.016))))
        )
        (pin bidirectional line (at -25.4 5.08 0) (length 5.08)
          (name "RXEN" (effects (font (size 1.016 1.016))))
          (number "P$6" (effects (font (size 1.016 1.016))))
        )
        (pin bidirectional line (at 20.32 -7.62 180) (length 5.08)
          (name "TXEN" (effects (font (size 1.016 1.016))))
          (number "P$7" (effects (font (size 1.016 1.016))))
        )
        (pin bidirectional line (at -25.4 2.54 0) (length 5.08)
          (name "DIO2" (effects (font (size 1.016 1.016))))
          (number "P$8" (effects (font (size 1.016 1.016))))
        )
        (pin bidirectional line (at -25.4 15.24 0) (length 5.08)
          (name "VCC" (effects (font (size 1.016 1.016))))
          (number "P$9" (effects (font (size 1.016 1.016))))
        )
      )
    )
    (symbol "SMA-J-P-H-ST-EM1:SMA-J-P-H-ST-EM1" (pin_numbers hide) (pin_names (offset 1.016) hide) (in_bom yes) (on_board yes)
      (property "Reference" "J" (id 0) (at -3.81 4.064 0)
        (effects (font (size 1.27 1.27)) (justify left bottom))
      )
      (property "Value" "SMA-J-P-H-ST-EM1" (id 1) (at -4.064 -4.318 0)
        (effects (font (size 1.27 1.27)) (justify left bottom))
      )
      (property "Footprint" "SAMTEC_SMA-J-P-H-ST-EM1" (id 2) (at 0 0 0)
        (effects (font (size 1.27 1.27)) (justify left bottom) hide)
      )
      (property "Datasheet" "" (id 3) (at 0 0 0)
        (effects (font (size 1.27 1.27)) (justify left bottom) hide)
      )
      (property "MAXIMUM_PACKAGE_HEIGHT" "3.675mm" (id 4) (at 0 0 0)
        (effects (font (size 1.27 1.27)) (justify left bottom) hide)
      )
      (property "MANUFACTURER" "Samtec" (id 5) (at 0 0 0)
        (effects (font (size 1.27 1.27)) (justify left bottom) hide)
      )
      (property "PARTREV" "G" (id 6) (at 0 0 0)
        (effects (font (size 1.27 1.27)) (justify left bottom) hide)
      )
      (property "STANDARD" "Manufacturer Recommendations" (id 7) (at 0 0 0)
        (effects (font (size 1.27 1.27)) (justify left bottom) hide)
      )
      (property "ki_locked" "" (id 8) (at 0 0 0)
        (effects (font (size 1.27 1.27)))
      )
      (symbol "SMA-J-P-H-ST-EM1_0_0"
        (polyline
          (pts
            (xy -3.302 -0.762)
            (xy -2.54 0)
          )
          (stroke (width 0.254) (type default) (color 0 0 0 0))
          (fill (type none))
        )
        (polyline
          (pts
            (xy -3.302 0.762)
            (xy -2.54 0)
          )
          (stroke (width 0.254) (type default) (color 0 0 0 0))
          (fill (type none))
        )
        (polyline
          (pts
            (xy -3.302 1.778)
            (xy -2.54 2.54)
          )
          (stroke (width 0.254) (type default) (color 0 0 0 0))
          (fill (type none))
        )
        (polyline
          (pts
            (xy -3.302 3.302)
            (xy -2.54 2.54)
          )
          (stroke (width 0.254) (type default) (color 0 0 0 0))
          (fill (type none))
        )
        (polyline
          (pts
            (xy -2.54 0)
            (xy 0 0)
          )
          (stroke (width 0.254) (type default) (color 0 0 0 0))
          (fill (type none))
        )
        (polyline
          (pts
            (xy -2.54 2.54)
            (xy 2.54 2.54)
          )
          (stroke (width 0.254) (type default) (color 0 0 0 0))
          (fill (type none))
        )
        (polyline
          (pts
            (xy -1.016 1.524)
            (xy 0 1.524)
          )
          (stroke (width 0.254) (type default) (color 0 0 0 0))
          (fill (type none))
        )
        (polyline
          (pts
            (xy -0.762 -0.762)
            (xy -1.27 -1.524)
          )
          (stroke (width 0.254) (type default) (color 0 0 0 0))
          (fill (type none))
        )
        (polyline
          (pts
            (xy 0 -0.762)
            (xy -0.762 -0.762)
          )
          (stroke (width 0.254) (type default) (color 0 0 0 0))
          (fill (type none))
        )
        (polyline
          (pts
            (xy 0 -0.762)
            (xy -0.508 -1.524)
          )
          (stroke (width 0.254) (type default) (color 0 0 0 0))
          (fill (type none))
        )
        (polyline
          (pts
            (xy 0 -0.762)
            (xy 0.762 -0.762)
          )
          (stroke (width 0.254) (type default) (color 0 0 0 0))
          (fill (type none))
        )
        (polyline
          (pts
            (xy 0 0)
            (xy -2.286 0)
          )
          (stroke (width 0.254) (type default) (color 0 0 0 0))
          (fill (type none))
        )
        (polyline
          (pts
            (xy 0 0)
            (xy 0 -0.762)
          )
          (stroke (width 0.254) (type default) (color 0 0 0 0))
          (fill (type none))
        )
        (polyline
          (pts
            (xy 0 1.524)
            (xy 0 0)
          )
          (stroke (width 0.254) (type default) (color 0 0 0 0))
          (fill (type none))
        )
        (polyline
          (pts
            (xy 0 1.524)
            (xy 1.016 1.524)
          )
          (stroke (width 0.254) (type default) (color 0 0 0 0))
          (fill (type none))
        )
        (polyline
          (pts
            (xy 0.762 -0.762)
            (xy 0.254 -1.524)
          )
          (stroke (width 0.254) (type default) (color 0 0 0 0))
          (fill (type none))
        )
        (polyline
          (pts
            (xy 2.54 0)
            (xy 0 0)
          )
          (stroke (width 0.254) (type default) (color 0 0 0 0))
          (fill (type none))
        )
        (circle (center 0 0) (radius 0.254)
          (stroke (width 0.254) (type default) (color 0 0 0 0))
          (fill (type none))
        )
        (circle (center 0 2.54) (radius 1.016)
          (stroke (width 0.254) (type default) (color 0 0 0 0))
          (fill (type none))
        )
        (pin passive line (at 2.54 2.54 180) (length 5.08)
          (name "~" (effects (font (size 1.016 1.016))))
          (number "1" (effects (font (size 1.016 1.016))))
        )
        (pin passive line (at 2.54 0 180) (length 5.08)
          (name "~" (effects (font (size 1.016 1.016))))
          (number "2_1" (effects (font (size 1.016 1.016))))
        )
        (pin passive line (at 2.54 0 180) (length 5.08)
          (name "~" (effects (font (size 1.016 1.016))))
          (number "2_2" (effects (font (size 1.016 1.016))))
        )
        (pin passive line (at 2.54 0 180) (length 5.08)
          (name "~" (effects (font (size 1.016 1.016))))
          (number "3_1" (effects (font (size 1.016 1.016))))
        )
        (pin passive line (at 2.54 0 180) (length 5.08)
          (name "~" (effects (font (size 1.016 1.016))))
          (number "3_2" (effects (font (size 1.016 1.016))))
        )
      )
    )
    (symbol "power:+3.3V" (power) (pin_names (offset 0)) (in_bom yes) (on_board yes)
      (property "Reference" "#PWR" (id 0) (at 0 -3.81 0)
        (effects (font (size 1.27 1.27)) hide)
      )
      (property "Value" "+3.3V" (id 1) (at 0 3.556 0)
        (effects (font (size 1.27 1.27)))
      )
      (property "Footprint" "" (id 2) (at 0 0 0)
        (effects (font (size 1.27 1.27)) hide)
      )
      (property "Datasheet" "" (id 3) (at 0 0 0)
        (effects (font (size 1.27 1.27)) hide)
      )
      (property "ki_keywords" "power-flag" (id 4) (at 0 0 0)
        (effects (font (size 1.27 1.27)) hide)
      )
      (property "ki_description" "Power symbol creates a global label with name \"+3.3V\"" (id 5) (at 0 0 0)
        (effects (font (size 1.27 1.27)) hide)
      )
      (symbol "+3.3V_0_1"
        (polyline
          (pts
            (xy -0.762 1.27)
            (xy 0 2.54)
          )
          (stroke (width 0) (type default) (color 0 0 0 0))
          (fill (type none))
        )
        (polyline
          (pts
            (xy 0 0)
            (xy 0 2.54)
          )
          (stroke (width 0) (type default) (color 0 0 0 0))
          (fill (type none))
        )
        (polyline
          (pts
            (xy 0 2.54)
            (xy 0.762 1.27)
          )
          (stroke (width 0) (type default) (color 0 0 0 0))
          (fill (type none))
        )
      )
      (symbol "+3.3V_1_1"
        (pin power_in line (at 0 0 90) (length 0) hide
          (name "+3V3" (effects (font (size 1.27 1.27))))
          (number "1" (effects (font (size 1.27 1.27))))
        )
      )
    )
    (symbol "power:GND" (power) (pin_names (offset 0)) (in_bom yes) (on_board yes)
      (property "Reference" "#PWR" (id 0) (at 0 -6.35 0)
        (effects (font (size 1.27 1.27)) hide)
      )
      (property "Value" "GND" (id 1) (at 0 -3.81 0)
        (effects (font (size 1.27 1.27)))
      )
      (property "Footprint" "" (id 2) (at 0 0 0)
        (effects (font (size 1.27 1.27)) hide)
      )
      (property "Datasheet" "" (id 3) (at 0 0 0)
        (effects (font (size 1.27 1.27)) hide)
      )
      (property "ki_keywords" "power-flag" (id 4) (at 0 0 0)
        (effects (font (size 1.27 1.27)) hide)
      )
      (property "ki_description" "Power symbol creates a global label with name \"GND\" , ground" (id 5) (at 0 0 0)
        (effects (font (size 1.27 1.27)) hide)
      )
      (symbol "GND_0_1"
        (polyline
          (pts
            (xy 0 0)
            (xy 0 -1.27)
            (xy 1.27 -1.27)
            (xy 0 -2.54)
            (xy -1.27 -1.27)
            (xy 0 -1.27)
          )
          (stroke (width 0) (type default) (color 0 0 0 0))
          (fill (type none))
        )
      )
      (symbol "GND_1_1"
        (pin power_in line (at 0 0 270) (length 0) hide
          (name "GND" (effects (font (size 1.27 1.27))))
          (number "1" (effects (font (size 1.27 1.27))))
        )
      )
    )
  )


  (no_connect (at 128.27 90.17) (uuid 0b9f21ed-3d41-4f23-ae45-74117a5f3153))
  (no_connect (at 128.27 92.71) (uuid 8486c294-aa7e-43c3-b257-1ca3356dd17a))

  (wire (pts (xy 175.26 92.71) (xy 173.99 92.71))
    (stroke (width 0) (type default) (color 0 0 0 0))
    (uuid 083becc8-e25d-4206-9636-55457650bbe3)
  )
  (wire (pts (xy 175.26 85.09) (xy 173.99 85.09))
    (stroke (width 0) (type default) (color 0 0 0 0))
    (uuid 123968c6-74e7-4754-8c36-08ea08e42555)
  )
  (wire (pts (xy 128.27 100.33) (xy 127 100.33))
    (stroke (width 0) (type default) (color 0 0 0 0))
    (uuid 2c95b9a6-9c71-4108-9cde-57ddfdd2dd19)
  )
  (wire (pts (xy 175.26 87.63) (xy 173.99 87.63))
    (stroke (width 0) (type default) (color 0 0 0 0))
    (uuid 3e3d55c8-e0ea-48fb-8421-a84b7cb7055b)
  )
  (wire (pts (xy 175.26 90.17) (xy 173.99 90.17))
    (stroke (width 0) (type default) (color 0 0 0 0))
    (uuid 725cdf26-4b92-46db-bca9-10d930002dda)
  )
  (wire (pts (xy 175.26 100.33) (xy 173.99 100.33))
    (stroke (width 0) (type default) (color 0 0 0 0))
    (uuid 79451892-db6b-4999-916d-6392174ee493)
  )
  (wire (pts (xy 175.26 95.25) (xy 173.99 95.25))
    (stroke (width 0) (type default) (color 0 0 0 0))
    (uuid 7acd513a-187b-4936-9f93-2e521ce33ad5)
  )
  (wire (pts (xy 128.27 80.01) (xy 127 80.01))
    (stroke (width 0) (type default) (color 0 0 0 0))
    (uuid 7b766787-7689-40b8-9ef5-c0b1af45a9ae)
  )
  (wire (pts (xy 175.26 97.79) (xy 173.99 97.79))
    (stroke (width 0) (type default) (color 0 0 0 0))
    (uuid 8e295ed4-82cb-4d9f-8888-7ad2dd4d5129)
  )
  (wire (pts (xy 175.26 102.87) (xy 173.99 102.87))
    (stroke (width 0) (type default) (color 0 0 0 0))
    (uuid 8f12311d-6f4c-4d28-a5bc-d6cb462bade7)
  )
  (wire (pts (xy 118.11 87.63) (xy 118.11 86.36))
    (stroke (width 0) (type default) (color 0 0 0 0))
    (uuid 98970bf0-1168-4b4e-a1c9-3b0c8d7eaacf)
  )
  (wire (pts (xy 127 100.33) (xy 127 101.6))
    (stroke (width 0) (type default) (color 0 0 0 0))
    (uuid aee7520e-3bfc-435f-a66b-1dd1f5aa6a87)
  )
  (wire (pts (xy 118.11 86.36) (xy 116.84 86.36))
    (stroke (width 0) (type default) (color 0 0 0 0))
    (uuid c67ad10d-2f75-4ec6-a139-47058f7f06b2)
  )
  (wire (pts (xy 127 80.01) (xy 127 78.74))
    (stroke (width 0) (type default) (color 0 0 0 0))
    (uuid df2a6036-7274-4398-9365-148b6ddab90d)
  )
  (wire (pts (xy 128.27 83.82) (xy 116.84 83.82))
    (stroke (width 0) (type default) (color 0 0 0 0))
    (uuid fad4c712-0a2e-465d-a9f8-83d26bd66e37)
  )

  (hierarchical_label "MOSI" (shape input) (at 175.26 90.17 0)
    (effects (font (size 1.27 1.27)) (justify left))
    (uuid 10d8ad0e-6a08-4053-92aa-23a15910fd21)
  )
  (hierarchical_label "TXEN" (shape input) (at 175.26 102.87 0)
    (effects (font (size 1.27 1.27)) (justify left))
    (uuid 2a6075ae-c7fa-41db-86b8-3f996740bdc2)
  )
  (hierarchical_label "MISO" (shape input) (at 175.26 92.71 0)
    (effects (font (size 1.27 1.27)) (justify left))
    (uuid 2b64d2cb-d62a-4762-97ea-f1b0d4293c4f)
  )
  (hierarchical_label "NSS" (shape input) (at 175.26 85.09 0)
    (effects (font (size 1.27 1.27)) (justify left))
    (uuid 475ed8b3-90bf-48cd-bce5-d8f48b689541)
  )
  (hierarchical_label "BUSY" (shape input) (at 175.26 97.79 0)
    (effects (font (size 1.27 1.27)) (justify left))
    (uuid 5f312b85-6822-40a3-b417-2df49696ca2d)
  )
  (hierarchical_label "NRST" (shape input) (at 175.26 95.25 0)
    (effects (font (size 1.27 1.27)) (justify left))
    (uuid 99186658-0361-40ba-ae93-62f23c5622e6)
  )
  (hierarchical_label "DIO1" (shape input) (at 175.26 100.33 0)
    (effects (font (size 1.27 1.27)) (justify left))
    (uuid ee29d712-3378-4507-a00b-003526b29bb1)
  )
  (hierarchical_label "SCK" (shape input) (at 175.26 87.63 0)
    (effects (font (size 1.27 1.27)) (justify left))
    (uuid fc83cd71-1198-4019-87a1-dc154bceead3)
  )

  (symbol (lib_id "E22-900M22S:E22-900M22S") (at 153.67 95.25 0) (unit 1)
    (in_bom yes) (on_board yes)
    (uuid 00000000-0000-0000-0000-000061138ffa)
    (property "Reference" "U9" (id 0) (at 153.67 95.25 0)
      (effects (font (size 1.27 1.27)) (justify left bottom) hide)
    )
    (property "Value" "E22-900M22S" (id 1) (at 153.67 95.25 0)
      (effects (font (size 1.27 1.27)) (justify left bottom) hide)
    )
    (property "Footprint" "others:E22-900M22S" (id 2) (at 153.67 95.25 0)
      (effects (font (size 1.27 1.27)) (justify left bottom) hide)
    )
    (property "Datasheet" "" (id 3) (at 153.67 95.25 0)
      (effects (font (size 1.27 1.27)) (justify left bottom) hide)
    )
    (pin "ANT" (uuid 1a2566b0-fca6-4432-9195-ac3a5228d6e0))
    (pin "P$1" (uuid cb5521ff-4113-4f61-8098-8c3895acbc48))
    (pin "P$10" (uuid b3f42e6c-d030-40e0-aa88-1b63d5c4a684))
    (pin "P$11" (uuid 39f8895d-340b-4bed-9a5d-ef0da36a025d))
    (pin "P$12" (uuid 091b6bec-f795-46dc-a989-51ef2874bced))
    (pin "P$13" (uuid 2851813c-4f4a-42fd-8e84-50ad44e74cae))
    (pin "P$14" (uuid 45310ec0-5353-4b8f-be59-2d2516c80f3b))
    (pin "P$15" (uuid 6cdaa852-b9bf-422b-997f-585fbe563d4f))
    (pin "P$16" (uuid 401187eb-99f9-4660-afbf-3b7061bbc6c1))
    (pin "P$17" (uuid fb1c9655-6c6f-4668-981a-2472c1f87067))
    (pin "P$18" (uuid 67976ef3-65fd-48e0-a78f-ecd58182e289))
    (pin "P$19" (uuid 083248d3-01b1-499c-ad52-4b1c9fe48171))
    (pin "P$2" (uuid 07f7b79b-8b8c-4762-bf37-e2c07e7ab000))
    (pin "P$20" (uuid 0240b240-04bd-4d10-b2d0-c2c46bb1dc09))
    (pin "P$22" (uuid 0484ce34-5935-4aa8-8e45-6b9a201be94d))
    (pin "P$3" (uuid 89cbf37e-f91c-452a-830f-353978c6f0b5))
    (pin "P$4" (uuid ba11866a-4519-4f6e-bb63-e9b6c8a2e945))
    (pin "P$5" (uuid 08076e99-6c79-4953-bf61-fc871129f39f))
    (pin "P$6" (uuid 647e905e-1978-4d0b-905e-a952057d565e))
    (pin "P$7" (uuid 68dbb8db-49c3-4eaa-87cc-ebff355cf505))
    (pin "P$8" (uuid 04cce2ae-e34d-4135-bc80-e9bd3ba8f856))
    (pin "P$9" (uuid f4ce52c1-0c3b-4700-a195-4ac0dcbd6e3f))
  )

  (symbol (lib_id "power:+3.3V") (at 127 78.74 0) (unit 1)
    (in_bom yes) (on_board yes)
    (uuid 00000000-0000-0000-0000-0000611f0aa3)
    (property "Reference" "#PWR055" (id 0) (at 127 82.55 0)
      (effects (font (size 1.27 1.27)) hide)
    )
    (property "Value" "+3.3V" (id 1) (at 127.381 74.3458 0))
    (property "Footprint" "" (id 2) (at 127 78.74 0)
      (effects (font (size 1.27 1.27)) hide)
    )
    (property "Datasheet" "" (id 3) (at 127 78.74 0)
      (effects (font (size 1.27 1.27)) hide)
    )
    (pin "1" (uuid eb31e17b-b4fb-4b94-9a6a-769f24402474))
  )

  (symbol (lib_id "power:GND") (at 127 101.6 0) (unit 1)
    (in_bom yes) (on_board yes)
    (uuid 00000000-0000-0000-0000-0000611f0aa9)
    (property "Reference" "#PWR057" (id 0) (at 127 107.95 0)
      (effects (font (size 1.27 1.27)) hide)
    )
    (property "Value" "GND" (id 1) (at 127.127 105.9942 0))
    (property "Footprint" "" (id 2) (at 127 101.6 0)
      (effects (font (size 1.27 1.27)) hide)
    )
    (property "Datasheet" "" (id 3) (at 127 101.6 0)
      (effects (font (size 1.27 1.27)) hide)
    )
    (pin "1" (uuid 45d2ba16-f6c4-413f-a27a-bb6cd0965582))
  )

  (symbol (lib_id "SMA-J-P-H-ST-EM1:SMA-J-P-H-ST-EM1") (at 114.3 86.36 0) (unit 1)
    (in_bom yes) (on_board yes)
    (uuid 00000000-0000-0000-0000-0000611f23b3)
    (property "Reference" "J4" (id 0) (at 114.0968 78.5622 0))
    (property "Value" "SMA-J-P-H-ST-EM1" (id 1) (at 114.0968 80.8736 0))
    (property "Footprint" "others:SMA-J-P-H-ST-EM1" (id 2) (at 114.3 86.36 0)
      (effects (font (size 1.27 1.27)) (justify left bottom) hide)
    )
    (property "Datasheet" "" (id 3) (at 114.3 86.36 0)
      (effects (font (size 1.27 1.27)) (justify left bottom) hide)
    )
    (property "MAXIMUM_PACKAGE_HEIGHT" "3.675mm" (id 4) (at 114.3 86.36 0)
      (effects (font (size 1.27 1.27)) (justify left bottom) hide)
    )
    (property "MANUFACTURER" "Samtec" (id 5) (at 114.3 86.36 0)
      (effects (font (size 1.27 1.27)) (justify left bottom) hide)
    )
    (property "PARTREV" "G" (id 6) (at 114.3 86.36 0)
      (effects (font (size 1.27 1.27)) (justify left bottom) hide)
    )
    (property "STANDARD" "Manufacturer Recommendations" (id 7) (at 114.3 86.36 0)
      (effects (font (size 1.27 1.27)) (justify left bottom) hide)
    )
    (pin "1" (uuid 5f2afa78-f003-486d-a282-77a4eefa108c))
    (pin "2_1" (uuid 7b9dfe28-63b7-4968-ac7f-edb3cc98ed88))
    (pin "2_2" (uuid ac22210e-18eb-47c4-95ff-90f94be96070))
    (pin "3_1" (uuid 88bd2dcf-1a68-4910-959a-e24e223b450a))
    (pin "3_2" (uuid 349516d1-60b8-4bab-9b58-6dd1e9a42ea8))
  )

  (symbol (lib_id "power:GND") (at 118.11 87.63 0) (unit 1)
    (in_bom yes) (on_board yes)
    (uuid 00000000-0000-0000-0000-0000611f42c4)
    (property "Reference" "#PWR056" (id 0) (at 118.11 93.98 0)
      (effects (font (size 1.27 1.27)) hide)
    )
    (property "Value" "GND" (id 1) (at 118.237 92.0242 0))
    (property "Footprint" "" (id 2) (at 118.11 87.63 0)
      (effects (font (size 1.27 1.27)) hide)
    )
    (property "Datasheet" "" (id 3) (at 118.11 87.63 0)
      (effects (font (size 1.27 1.27)) hide)
    )
    (pin "1" (uuid 7292e485-cd8b-404c-8e78-324b9d4fecad))
  )
)
